<svg width="32" height="32" viewBox="0 0 32 32" fill="none" xmlns="http://www.w3.org/2000/svg">
<path d="M14.6667 22.6665C15.0872 22.85 15.5412 22.9448 16 22.9448C16.4589 22.9448 16.9128 22.85 17.3334 22.6665" stroke="white" stroke-width="2" stroke-linecap="round" stroke-linejoin="round"/>
<path d="M15.9999 4C9.78127 4 6.13861 7.108 5.51727 11.46C4.89389 15.4797 5.84944 19.5848 8.18394 22.916C9.3075 24.5584 10.76 25.9496 12.4493 27.0013C14.6706 28.3347 17.3346 28.3347 19.5559 27.0013C21.2453 25.9496 22.6977 24.5584 23.8213 22.916C26.1463 19.5806 27.101 15.4793 26.4879 11.46C25.8666 7.10667 22.2239 4 16.0053 4H15.9999Z" stroke="white" stroke-width="2" stroke-linecap="round" stroke-linejoin="round"/>
<path d="M10.6667 14.6665L13.3334 17.3332" stroke="white" stroke-width="2" stroke-linecap="round" stroke-linejoin="round"/>
<path d="M21.3334 14.6665L18.6667 17.3332" stroke="white" stroke-width="2" stroke-linecap="round" stroke-linejoin="round"/>
</svg>
