<svg width="80" height="72" viewBox="0 0 80 72" fill="none" xmlns="http://www.w3.org/2000/svg">
<circle cx="16" cy="16" r="16" fill="#FC750F"/>
<circle cx="74" cy="14" r="6" fill="#E9E9E9"/>
<circle cx="56" cy="64" r="8" fill="#FFEA3B"/>
<circle cx="40" cy="32" r="31" fill="white" stroke="#1B1A1A" stroke-width="2"/>
<path d="M29.3333 41.3333C30.8061 41.3333 32 40.1394 32 38.6667C32 37.1939 30.8061 36 29.3333 36C27.8606 36 26.6667 37.1939 26.6667 38.6667C26.6667 40.1394 27.8606 41.3333 29.3333 41.3333Z" stroke="#1B1A1A" stroke-width="2" stroke-linecap="round" stroke-linejoin="round"/>
<path d="M41.3333 41.3333C42.8061 41.3333 44 40.1394 44 38.6667C44 37.1939 42.8061 36 41.3333 36C39.8606 36 38.6667 37.1939 38.6667 38.6667C38.6667 40.1394 39.8606 41.3333 41.3333 41.3333Z" stroke="#1B1A1A" stroke-width="2" stroke-linecap="round" stroke-linejoin="round"/>
<path d="M41.3333 41.3335H29.3333" stroke="#1B1A1A" stroke-width="2" stroke-linecap="round" stroke-linejoin="round"/>
<path d="M29.3333 36H41.3333" stroke="#1B1A1A" stroke-width="2" stroke-linecap="round" stroke-linejoin="round"/>
<path d="M34.6667 32.0002V25.3335H37.3333C38.3942 25.3335 39.4116 25.7549 40.1618 26.5051C40.9119 27.2552 41.3333 28.2726 41.3333 29.3335V36.0002" stroke="#1B1A1A" stroke-width="2" stroke-linecap="round" stroke-linejoin="round"/>
<path d="M30.6667 36V33.3333C30.6667 32.9797 30.8071 32.6406 31.0572 32.3905C31.3072 32.1405 31.6464 32 32 32H41.3333" stroke="#1B1A1A" stroke-width="2" stroke-linecap="round" stroke-linejoin="round"/>
<path d="M52.16 29.1732L48 22.6665L41.3333 29.3332" stroke="#1B1A1A" stroke-width="2" stroke-linecap="round" stroke-linejoin="round"/>
<path d="M52.16 29.1733C52.7187 29.7327 53.0991 30.4452 53.2531 31.2206C53.4072 31.9961 53.328 32.7998 53.0255 33.5303C52.7231 34.2607 52.2109 34.8852 51.5538 35.3248C50.8966 35.7643 50.1239 35.9993 49.3333 36C48.2728 35.9991 47.2561 35.577 46.5067 34.8267L52.16 29.1733V29.1733Z" stroke="#1B1A1A" stroke-width="2" stroke-linecap="round" stroke-linejoin="round"/>
</svg>
